##### STARTING: 10:38:56 #####
(10:38:56) account: 9007
##### STARTING: 10:42:25 #####
(10:42:25) account: 9007
1
(10:42:26) account: 9029
1
##### STARTING SEND: 10:42:26 #####
The following accounts were billed today (2017-12-14):

Name: Dave Stohlton
Account ID: 9007
CC #: XXXXXXXX2025 (this was the original card number and could have changed)
CC Exp. Date: 0420
Amount: 35
Subscription Type: Monthly
Next Bill Date: 2018-01-14
Billing Results: SUCCESS


Name: Doran Test 244.14
Account ID: 9029
CC Exp. Date: 0419
Amount: 3
Subscription Type: Monthly
Billing Results: ERROR
CC #: ERROR (no credit card)
Bill Account: ERROR ()



##### ENDING SEND: 10:42:26 #####
##### ENDING: 10:42:26 #####

##### STARTING: 10:48:29 #####
##### STARTING: 10:48:57 #####
